Created by PLY version 3.11 (http://www.dabeaz.com/ply)

Grammar

Rule 0     S' -> programme
Rule 1     programme -> TXT
Rule 2     programme -> TXT programme
Rule 3     programme -> dumbobloc
Rule 4     programme -> dumbobloc programme
Rule 5     dumbobloc -> ACO expressionlist ACC
Rule 6     expression -> VAR ASN stringlist
Rule 7     expression -> VAR ASN stringexpression
Rule 8     expression -> PRT stringexpression
Rule 9     expression -> FOR VAR IN stringlist DO expressionlist EF
Rule 10    expression -> FOR VAR IN VAR DO expressionlist EF
Rule 11    expression -> IF conditionalOrExpression DO expressionlist ENDIF
Rule 12    expression -> VAR ASN conditionalOrExpression
Rule 13    expression -> conditionalOrExpression
Rule 14    conditionalOrExpression -> conditionalAndExpression
Rule 15    conditionalOrExpression -> conditionalOrExpression OR conditionalAndExpression
Rule 16    conditionalAndExpression -> equalityExpression
Rule 17    conditionalAndExpression -> conditionalAndExpression AND equalityExpression
Rule 18    equalityExpression -> relationalExpression
Rule 19    equalityExpression -> equalityExpression EQ relationalExpression
Rule 20    relationalExpression -> opexpression
Rule 21    relationalExpression -> relationalExpression REL opexpression
Rule 22    opexpression -> opexpression ADDOP mulexpression
Rule 23    opexpression -> mulexpression
Rule 24    mulexpression -> mulexpression MULOP facexpression
Rule 25    mulexpression -> facexpression
Rule 26    facexpression -> VAR
Rule 27    facexpression -> INT
Rule 28    facexpression -> TRUE
Rule 29    facexpression -> FALSE
Rule 30    expressionlist -> expression PV
Rule 31    expressionlist -> expression PV expressionlist
Rule 32    fexpression -> STRI STR STRO
Rule 33    stringexpression -> stringexpression PT fexpression
Rule 34    stringexpression -> stringexpression PT facexpression
Rule 35    stringexpression -> fexpression
Rule 36    stringexpression -> facexpression
Rule 37    stringlist -> BRO stringlistinterior BRC
Rule 38    stringlistinterior -> STRI STR STRO VIR stringlistinterior
Rule 39    stringlistinterior -> STRI STR STRO

Terminals, with rules where they appear

ACC                  : 5
ACO                  : 5
ADDOP                : 22
AND                  : 17
ASN                  : 6 7 12
BRC                  : 37
BRO                  : 37
DO                   : 9 10 11
EF                   : 9 10
ENDIF                : 11
EQ                   : 19
FALSE                : 29
FOR                  : 9 10
IF                   : 11
IN                   : 9 10
INT                  : 27
MULOP                : 24
OR                   : 15
PRT                  : 8
PT                   : 33 34
PV                   : 30 31
REL                  : 21
STR                  : 32 38 39
STRI                 : 32 38 39
STRO                 : 32 38 39
TRUE                 : 28
TXT                  : 1 2
VAR                  : 6 7 9 10 10 12 26
VIR                  : 38
error                : 

Nonterminals, with rules where they appear

conditionalAndExpression : 14 15 17
conditionalOrExpression : 11 12 13 15
dumbobloc            : 3 4
equalityExpression   : 16 17 19
expression           : 30 31
expressionlist       : 5 9 10 11 31
facexpression        : 24 25 34 36
fexpression          : 33 35
mulexpression        : 22 23 24
opexpression         : 20 21 22
programme            : 2 4 0
relationalExpression : 18 19 21
stringexpression     : 7 8 33 34
stringlist           : 6 9
stringlistinterior   : 37 38

Parsing method: LALR

state 0

    (0) S' -> . programme
    (1) programme -> . TXT
    (2) programme -> . TXT programme
    (3) programme -> . dumbobloc
    (4) programme -> . dumbobloc programme
    (5) dumbobloc -> . ACO expressionlist ACC

    TXT             shift and go to state 2
    ACO             shift and go to state 4

    programme                      shift and go to state 1
    dumbobloc                      shift and go to state 3

state 1

    (0) S' -> programme .



state 2

    (1) programme -> TXT .
    (2) programme -> TXT . programme
    (1) programme -> . TXT
    (2) programme -> . TXT programme
    (3) programme -> . dumbobloc
    (4) programme -> . dumbobloc programme
    (5) dumbobloc -> . ACO expressionlist ACC

    $end            reduce using rule 1 (programme -> TXT .)
    TXT             shift and go to state 2
    ACO             shift and go to state 4

    programme                      shift and go to state 5
    dumbobloc                      shift and go to state 3

state 3

    (3) programme -> dumbobloc .
    (4) programme -> dumbobloc . programme
    (1) programme -> . TXT
    (2) programme -> . TXT programme
    (3) programme -> . dumbobloc
    (4) programme -> . dumbobloc programme
    (5) dumbobloc -> . ACO expressionlist ACC

    $end            reduce using rule 3 (programme -> dumbobloc .)
    TXT             shift and go to state 2
    ACO             shift and go to state 4

    dumbobloc                      shift and go to state 3
    programme                      shift and go to state 6

state 4

    (5) dumbobloc -> ACO . expressionlist ACC
    (30) expressionlist -> . expression PV
    (31) expressionlist -> . expression PV expressionlist
    (6) expression -> . VAR ASN stringlist
    (7) expression -> . VAR ASN stringexpression
    (8) expression -> . PRT stringexpression
    (9) expression -> . FOR VAR IN stringlist DO expressionlist EF
    (10) expression -> . FOR VAR IN VAR DO expressionlist EF
    (11) expression -> . IF conditionalOrExpression DO expressionlist ENDIF
    (12) expression -> . VAR ASN conditionalOrExpression
    (13) expression -> . conditionalOrExpression
    (14) conditionalOrExpression -> . conditionalAndExpression
    (15) conditionalOrExpression -> . conditionalOrExpression OR conditionalAndExpression
    (16) conditionalAndExpression -> . equalityExpression
    (17) conditionalAndExpression -> . conditionalAndExpression AND equalityExpression
    (18) equalityExpression -> . relationalExpression
    (19) equalityExpression -> . equalityExpression EQ relationalExpression
    (20) relationalExpression -> . opexpression
    (21) relationalExpression -> . relationalExpression REL opexpression
    (22) opexpression -> . opexpression ADDOP mulexpression
    (23) opexpression -> . mulexpression
    (24) mulexpression -> . mulexpression MULOP facexpression
    (25) mulexpression -> . facexpression
    (26) facexpression -> . VAR
    (27) facexpression -> . INT
    (28) facexpression -> . TRUE
    (29) facexpression -> . FALSE

    VAR             shift and go to state 9
    PRT             shift and go to state 10
    FOR             shift and go to state 11
    IF              shift and go to state 12
    INT             shift and go to state 20
    TRUE            shift and go to state 21
    FALSE           shift and go to state 22

    expressionlist                 shift and go to state 7
    expression                     shift and go to state 8
    conditionalOrExpression        shift and go to state 13
    conditionalAndExpression       shift and go to state 14
    equalityExpression             shift and go to state 15
    relationalExpression           shift and go to state 16
    opexpression                   shift and go to state 17
    mulexpression                  shift and go to state 18
    facexpression                  shift and go to state 19

state 5

    (2) programme -> TXT programme .

    $end            reduce using rule 2 (programme -> TXT programme .)


state 6

    (4) programme -> dumbobloc programme .

    $end            reduce using rule 4 (programme -> dumbobloc programme .)


state 7

    (5) dumbobloc -> ACO expressionlist . ACC

    ACC             shift and go to state 23


state 8

    (30) expressionlist -> expression . PV
    (31) expressionlist -> expression . PV expressionlist

    PV              shift and go to state 24


state 9

    (6) expression -> VAR . ASN stringlist
    (7) expression -> VAR . ASN stringexpression
    (12) expression -> VAR . ASN conditionalOrExpression
    (26) facexpression -> VAR .

    ASN             shift and go to state 25
    MULOP           reduce using rule 26 (facexpression -> VAR .)
    ADDOP           reduce using rule 26 (facexpression -> VAR .)
    REL             reduce using rule 26 (facexpression -> VAR .)
    EQ              reduce using rule 26 (facexpression -> VAR .)
    AND             reduce using rule 26 (facexpression -> VAR .)
    OR              reduce using rule 26 (facexpression -> VAR .)
    PV              reduce using rule 26 (facexpression -> VAR .)


state 10

    (8) expression -> PRT . stringexpression
    (33) stringexpression -> . stringexpression PT fexpression
    (34) stringexpression -> . stringexpression PT facexpression
    (35) stringexpression -> . fexpression
    (36) stringexpression -> . facexpression
    (32) fexpression -> . STRI STR STRO
    (26) facexpression -> . VAR
    (27) facexpression -> . INT
    (28) facexpression -> . TRUE
    (29) facexpression -> . FALSE

    STRI            shift and go to state 29
    VAR             shift and go to state 30
    INT             shift and go to state 20
    TRUE            shift and go to state 21
    FALSE           shift and go to state 22

    stringexpression               shift and go to state 26
    fexpression                    shift and go to state 27
    facexpression                  shift and go to state 28

state 11

    (9) expression -> FOR . VAR IN stringlist DO expressionlist EF
    (10) expression -> FOR . VAR IN VAR DO expressionlist EF

    VAR             shift and go to state 31


state 12

    (11) expression -> IF . conditionalOrExpression DO expressionlist ENDIF
    (14) conditionalOrExpression -> . conditionalAndExpression
    (15) conditionalOrExpression -> . conditionalOrExpression OR conditionalAndExpression
    (16) conditionalAndExpression -> . equalityExpression
    (17) conditionalAndExpression -> . conditionalAndExpression AND equalityExpression
    (18) equalityExpression -> . relationalExpression
    (19) equalityExpression -> . equalityExpression EQ relationalExpression
    (20) relationalExpression -> . opexpression
    (21) relationalExpression -> . relationalExpression REL opexpression
    (22) opexpression -> . opexpression ADDOP mulexpression
    (23) opexpression -> . mulexpression
    (24) mulexpression -> . mulexpression MULOP facexpression
    (25) mulexpression -> . facexpression
    (26) facexpression -> . VAR
    (27) facexpression -> . INT
    (28) facexpression -> . TRUE
    (29) facexpression -> . FALSE

    VAR             shift and go to state 30
    INT             shift and go to state 20
    TRUE            shift and go to state 21
    FALSE           shift and go to state 22

    conditionalOrExpression        shift and go to state 32
    conditionalAndExpression       shift and go to state 14
    equalityExpression             shift and go to state 15
    relationalExpression           shift and go to state 16
    opexpression                   shift and go to state 17
    mulexpression                  shift and go to state 18
    facexpression                  shift and go to state 19

state 13

    (13) expression -> conditionalOrExpression .
    (15) conditionalOrExpression -> conditionalOrExpression . OR conditionalAndExpression

    PV              reduce using rule 13 (expression -> conditionalOrExpression .)
    OR              shift and go to state 33


state 14

    (14) conditionalOrExpression -> conditionalAndExpression .
    (17) conditionalAndExpression -> conditionalAndExpression . AND equalityExpression

    OR              reduce using rule 14 (conditionalOrExpression -> conditionalAndExpression .)
    PV              reduce using rule 14 (conditionalOrExpression -> conditionalAndExpression .)
    DO              reduce using rule 14 (conditionalOrExpression -> conditionalAndExpression .)
    AND             shift and go to state 34


state 15

    (16) conditionalAndExpression -> equalityExpression .
    (19) equalityExpression -> equalityExpression . EQ relationalExpression

    AND             reduce using rule 16 (conditionalAndExpression -> equalityExpression .)
    OR              reduce using rule 16 (conditionalAndExpression -> equalityExpression .)
    PV              reduce using rule 16 (conditionalAndExpression -> equalityExpression .)
    DO              reduce using rule 16 (conditionalAndExpression -> equalityExpression .)
    EQ              shift and go to state 35


state 16

    (18) equalityExpression -> relationalExpression .
    (21) relationalExpression -> relationalExpression . REL opexpression

    EQ              reduce using rule 18 (equalityExpression -> relationalExpression .)
    AND             reduce using rule 18 (equalityExpression -> relationalExpression .)
    OR              reduce using rule 18 (equalityExpression -> relationalExpression .)
    PV              reduce using rule 18 (equalityExpression -> relationalExpression .)
    DO              reduce using rule 18 (equalityExpression -> relationalExpression .)
    REL             shift and go to state 36


state 17

    (20) relationalExpression -> opexpression .
    (22) opexpression -> opexpression . ADDOP mulexpression

    REL             reduce using rule 20 (relationalExpression -> opexpression .)
    EQ              reduce using rule 20 (relationalExpression -> opexpression .)
    AND             reduce using rule 20 (relationalExpression -> opexpression .)
    OR              reduce using rule 20 (relationalExpression -> opexpression .)
    PV              reduce using rule 20 (relationalExpression -> opexpression .)
    DO              reduce using rule 20 (relationalExpression -> opexpression .)
    ADDOP           shift and go to state 37


state 18

    (23) opexpression -> mulexpression .
    (24) mulexpression -> mulexpression . MULOP facexpression

    ADDOP           reduce using rule 23 (opexpression -> mulexpression .)
    REL             reduce using rule 23 (opexpression -> mulexpression .)
    EQ              reduce using rule 23 (opexpression -> mulexpression .)
    AND             reduce using rule 23 (opexpression -> mulexpression .)
    OR              reduce using rule 23 (opexpression -> mulexpression .)
    PV              reduce using rule 23 (opexpression -> mulexpression .)
    DO              reduce using rule 23 (opexpression -> mulexpression .)
    MULOP           shift and go to state 38


state 19

    (25) mulexpression -> facexpression .

    MULOP           reduce using rule 25 (mulexpression -> facexpression .)
    ADDOP           reduce using rule 25 (mulexpression -> facexpression .)
    REL             reduce using rule 25 (mulexpression -> facexpression .)
    EQ              reduce using rule 25 (mulexpression -> facexpression .)
    AND             reduce using rule 25 (mulexpression -> facexpression .)
    OR              reduce using rule 25 (mulexpression -> facexpression .)
    PV              reduce using rule 25 (mulexpression -> facexpression .)
    DO              reduce using rule 25 (mulexpression -> facexpression .)


state 20

    (27) facexpression -> INT .

    MULOP           reduce using rule 27 (facexpression -> INT .)
    ADDOP           reduce using rule 27 (facexpression -> INT .)
    REL             reduce using rule 27 (facexpression -> INT .)
    EQ              reduce using rule 27 (facexpression -> INT .)
    AND             reduce using rule 27 (facexpression -> INT .)
    OR              reduce using rule 27 (facexpression -> INT .)
    PV              reduce using rule 27 (facexpression -> INT .)
    PT              reduce using rule 27 (facexpression -> INT .)
    DO              reduce using rule 27 (facexpression -> INT .)


state 21

    (28) facexpression -> TRUE .

    MULOP           reduce using rule 28 (facexpression -> TRUE .)
    ADDOP           reduce using rule 28 (facexpression -> TRUE .)
    REL             reduce using rule 28 (facexpression -> TRUE .)
    EQ              reduce using rule 28 (facexpression -> TRUE .)
    AND             reduce using rule 28 (facexpression -> TRUE .)
    OR              reduce using rule 28 (facexpression -> TRUE .)
    PV              reduce using rule 28 (facexpression -> TRUE .)
    PT              reduce using rule 28 (facexpression -> TRUE .)
    DO              reduce using rule 28 (facexpression -> TRUE .)


state 22

    (29) facexpression -> FALSE .

    MULOP           reduce using rule 29 (facexpression -> FALSE .)
    ADDOP           reduce using rule 29 (facexpression -> FALSE .)
    REL             reduce using rule 29 (facexpression -> FALSE .)
    EQ              reduce using rule 29 (facexpression -> FALSE .)
    AND             reduce using rule 29 (facexpression -> FALSE .)
    OR              reduce using rule 29 (facexpression -> FALSE .)
    PV              reduce using rule 29 (facexpression -> FALSE .)
    PT              reduce using rule 29 (facexpression -> FALSE .)
    DO              reduce using rule 29 (facexpression -> FALSE .)


state 23

    (5) dumbobloc -> ACO expressionlist ACC .

    TXT             reduce using rule 5 (dumbobloc -> ACO expressionlist ACC .)
    ACO             reduce using rule 5 (dumbobloc -> ACO expressionlist ACC .)
    $end            reduce using rule 5 (dumbobloc -> ACO expressionlist ACC .)


state 24

    (30) expressionlist -> expression PV .
    (31) expressionlist -> expression PV . expressionlist
    (30) expressionlist -> . expression PV
    (31) expressionlist -> . expression PV expressionlist
    (6) expression -> . VAR ASN stringlist
    (7) expression -> . VAR ASN stringexpression
    (8) expression -> . PRT stringexpression
    (9) expression -> . FOR VAR IN stringlist DO expressionlist EF
    (10) expression -> . FOR VAR IN VAR DO expressionlist EF
    (11) expression -> . IF conditionalOrExpression DO expressionlist ENDIF
    (12) expression -> . VAR ASN conditionalOrExpression
    (13) expression -> . conditionalOrExpression
    (14) conditionalOrExpression -> . conditionalAndExpression
    (15) conditionalOrExpression -> . conditionalOrExpression OR conditionalAndExpression
    (16) conditionalAndExpression -> . equalityExpression
    (17) conditionalAndExpression -> . conditionalAndExpression AND equalityExpression
    (18) equalityExpression -> . relationalExpression
    (19) equalityExpression -> . equalityExpression EQ relationalExpression
    (20) relationalExpression -> . opexpression
    (21) relationalExpression -> . relationalExpression REL opexpression
    (22) opexpression -> . opexpression ADDOP mulexpression
    (23) opexpression -> . mulexpression
    (24) mulexpression -> . mulexpression MULOP facexpression
    (25) mulexpression -> . facexpression
    (26) facexpression -> . VAR
    (27) facexpression -> . INT
    (28) facexpression -> . TRUE
    (29) facexpression -> . FALSE

    ACC             reduce using rule 30 (expressionlist -> expression PV .)
    ENDIF           reduce using rule 30 (expressionlist -> expression PV .)
    EF              reduce using rule 30 (expressionlist -> expression PV .)
    VAR             shift and go to state 9
    PRT             shift and go to state 10
    FOR             shift and go to state 11
    IF              shift and go to state 12
    INT             shift and go to state 20
    TRUE            shift and go to state 21
    FALSE           shift and go to state 22

    expression                     shift and go to state 8
    expressionlist                 shift and go to state 39
    conditionalOrExpression        shift and go to state 13
    conditionalAndExpression       shift and go to state 14
    equalityExpression             shift and go to state 15
    relationalExpression           shift and go to state 16
    opexpression                   shift and go to state 17
    mulexpression                  shift and go to state 18
    facexpression                  shift and go to state 19

state 25

    (6) expression -> VAR ASN . stringlist
    (7) expression -> VAR ASN . stringexpression
    (12) expression -> VAR ASN . conditionalOrExpression
    (37) stringlist -> . BRO stringlistinterior BRC
    (33) stringexpression -> . stringexpression PT fexpression
    (34) stringexpression -> . stringexpression PT facexpression
    (35) stringexpression -> . fexpression
    (36) stringexpression -> . facexpression
    (14) conditionalOrExpression -> . conditionalAndExpression
    (15) conditionalOrExpression -> . conditionalOrExpression OR conditionalAndExpression
    (32) fexpression -> . STRI STR STRO
    (26) facexpression -> . VAR
    (27) facexpression -> . INT
    (28) facexpression -> . TRUE
    (29) facexpression -> . FALSE
    (16) conditionalAndExpression -> . equalityExpression
    (17) conditionalAndExpression -> . conditionalAndExpression AND equalityExpression
    (18) equalityExpression -> . relationalExpression
    (19) equalityExpression -> . equalityExpression EQ relationalExpression
    (20) relationalExpression -> . opexpression
    (21) relationalExpression -> . relationalExpression REL opexpression
    (22) opexpression -> . opexpression ADDOP mulexpression
    (23) opexpression -> . mulexpression
    (24) mulexpression -> . mulexpression MULOP facexpression
    (25) mulexpression -> . facexpression

    BRO             shift and go to state 43
    STRI            shift and go to state 29
    VAR             shift and go to state 30
    INT             shift and go to state 20
    TRUE            shift and go to state 21
    FALSE           shift and go to state 22

    stringlist                     shift and go to state 40
    stringexpression               shift and go to state 41
    conditionalOrExpression        shift and go to state 42
    fexpression                    shift and go to state 27
    facexpression                  shift and go to state 44
    conditionalAndExpression       shift and go to state 14
    equalityExpression             shift and go to state 15
    relationalExpression           shift and go to state 16
    opexpression                   shift and go to state 17
    mulexpression                  shift and go to state 18

state 26

    (8) expression -> PRT stringexpression .
    (33) stringexpression -> stringexpression . PT fexpression
    (34) stringexpression -> stringexpression . PT facexpression

    PV              reduce using rule 8 (expression -> PRT stringexpression .)
    PT              shift and go to state 45


state 27

    (35) stringexpression -> fexpression .

    PT              reduce using rule 35 (stringexpression -> fexpression .)
    PV              reduce using rule 35 (stringexpression -> fexpression .)


state 28

    (36) stringexpression -> facexpression .

    PT              reduce using rule 36 (stringexpression -> facexpression .)
    PV              reduce using rule 36 (stringexpression -> facexpression .)


state 29

    (32) fexpression -> STRI . STR STRO

    STR             shift and go to state 46


state 30

    (26) facexpression -> VAR .

    PT              reduce using rule 26 (facexpression -> VAR .)
    PV              reduce using rule 26 (facexpression -> VAR .)
    MULOP           reduce using rule 26 (facexpression -> VAR .)
    ADDOP           reduce using rule 26 (facexpression -> VAR .)
    REL             reduce using rule 26 (facexpression -> VAR .)
    EQ              reduce using rule 26 (facexpression -> VAR .)
    AND             reduce using rule 26 (facexpression -> VAR .)
    DO              reduce using rule 26 (facexpression -> VAR .)
    OR              reduce using rule 26 (facexpression -> VAR .)


state 31

    (9) expression -> FOR VAR . IN stringlist DO expressionlist EF
    (10) expression -> FOR VAR . IN VAR DO expressionlist EF

    IN              shift and go to state 47


state 32

    (11) expression -> IF conditionalOrExpression . DO expressionlist ENDIF
    (15) conditionalOrExpression -> conditionalOrExpression . OR conditionalAndExpression

    DO              shift and go to state 48
    OR              shift and go to state 33


state 33

    (15) conditionalOrExpression -> conditionalOrExpression OR . conditionalAndExpression
    (16) conditionalAndExpression -> . equalityExpression
    (17) conditionalAndExpression -> . conditionalAndExpression AND equalityExpression
    (18) equalityExpression -> . relationalExpression
    (19) equalityExpression -> . equalityExpression EQ relationalExpression
    (20) relationalExpression -> . opexpression
    (21) relationalExpression -> . relationalExpression REL opexpression
    (22) opexpression -> . opexpression ADDOP mulexpression
    (23) opexpression -> . mulexpression
    (24) mulexpression -> . mulexpression MULOP facexpression
    (25) mulexpression -> . facexpression
    (26) facexpression -> . VAR
    (27) facexpression -> . INT
    (28) facexpression -> . TRUE
    (29) facexpression -> . FALSE

    VAR             shift and go to state 30
    INT             shift and go to state 20
    TRUE            shift and go to state 21
    FALSE           shift and go to state 22

    conditionalAndExpression       shift and go to state 49
    equalityExpression             shift and go to state 15
    relationalExpression           shift and go to state 16
    opexpression                   shift and go to state 17
    mulexpression                  shift and go to state 18
    facexpression                  shift and go to state 19

state 34

    (17) conditionalAndExpression -> conditionalAndExpression AND . equalityExpression
    (18) equalityExpression -> . relationalExpression
    (19) equalityExpression -> . equalityExpression EQ relationalExpression
    (20) relationalExpression -> . opexpression
    (21) relationalExpression -> . relationalExpression REL opexpression
    (22) opexpression -> . opexpression ADDOP mulexpression
    (23) opexpression -> . mulexpression
    (24) mulexpression -> . mulexpression MULOP facexpression
    (25) mulexpression -> . facexpression
    (26) facexpression -> . VAR
    (27) facexpression -> . INT
    (28) facexpression -> . TRUE
    (29) facexpression -> . FALSE

    VAR             shift and go to state 30
    INT             shift and go to state 20
    TRUE            shift and go to state 21
    FALSE           shift and go to state 22

    equalityExpression             shift and go to state 50
    relationalExpression           shift and go to state 16
    opexpression                   shift and go to state 17
    mulexpression                  shift and go to state 18
    facexpression                  shift and go to state 19

state 35

    (19) equalityExpression -> equalityExpression EQ . relationalExpression
    (20) relationalExpression -> . opexpression
    (21) relationalExpression -> . relationalExpression REL opexpression
    (22) opexpression -> . opexpression ADDOP mulexpression
    (23) opexpression -> . mulexpression
    (24) mulexpression -> . mulexpression MULOP facexpression
    (25) mulexpression -> . facexpression
    (26) facexpression -> . VAR
    (27) facexpression -> . INT
    (28) facexpression -> . TRUE
    (29) facexpression -> . FALSE

    VAR             shift and go to state 30
    INT             shift and go to state 20
    TRUE            shift and go to state 21
    FALSE           shift and go to state 22

    relationalExpression           shift and go to state 51
    opexpression                   shift and go to state 17
    mulexpression                  shift and go to state 18
    facexpression                  shift and go to state 19

state 36

    (21) relationalExpression -> relationalExpression REL . opexpression
    (22) opexpression -> . opexpression ADDOP mulexpression
    (23) opexpression -> . mulexpression
    (24) mulexpression -> . mulexpression MULOP facexpression
    (25) mulexpression -> . facexpression
    (26) facexpression -> . VAR
    (27) facexpression -> . INT
    (28) facexpression -> . TRUE
    (29) facexpression -> . FALSE

    VAR             shift and go to state 30
    INT             shift and go to state 20
    TRUE            shift and go to state 21
    FALSE           shift and go to state 22

    opexpression                   shift and go to state 52
    mulexpression                  shift and go to state 18
    facexpression                  shift and go to state 19

state 37

    (22) opexpression -> opexpression ADDOP . mulexpression
    (24) mulexpression -> . mulexpression MULOP facexpression
    (25) mulexpression -> . facexpression
    (26) facexpression -> . VAR
    (27) facexpression -> . INT
    (28) facexpression -> . TRUE
    (29) facexpression -> . FALSE

    VAR             shift and go to state 30
    INT             shift and go to state 20
    TRUE            shift and go to state 21
    FALSE           shift and go to state 22

    mulexpression                  shift and go to state 53
    facexpression                  shift and go to state 19

state 38

    (24) mulexpression -> mulexpression MULOP . facexpression
    (26) facexpression -> . VAR
    (27) facexpression -> . INT
    (28) facexpression -> . TRUE
    (29) facexpression -> . FALSE

    VAR             shift and go to state 30
    INT             shift and go to state 20
    TRUE            shift and go to state 21
    FALSE           shift and go to state 22

    facexpression                  shift and go to state 54

state 39

    (31) expressionlist -> expression PV expressionlist .

    ACC             reduce using rule 31 (expressionlist -> expression PV expressionlist .)
    ENDIF           reduce using rule 31 (expressionlist -> expression PV expressionlist .)
    EF              reduce using rule 31 (expressionlist -> expression PV expressionlist .)


state 40

    (6) expression -> VAR ASN stringlist .

    PV              reduce using rule 6 (expression -> VAR ASN stringlist .)


state 41

    (7) expression -> VAR ASN stringexpression .
    (33) stringexpression -> stringexpression . PT fexpression
    (34) stringexpression -> stringexpression . PT facexpression

    PV              reduce using rule 7 (expression -> VAR ASN stringexpression .)
    PT              shift and go to state 45


state 42

    (12) expression -> VAR ASN conditionalOrExpression .
    (15) conditionalOrExpression -> conditionalOrExpression . OR conditionalAndExpression

    PV              reduce using rule 12 (expression -> VAR ASN conditionalOrExpression .)
    OR              shift and go to state 33


state 43

    (37) stringlist -> BRO . stringlistinterior BRC
    (38) stringlistinterior -> . STRI STR STRO VIR stringlistinterior
    (39) stringlistinterior -> . STRI STR STRO

    STRI            shift and go to state 56

    stringlistinterior             shift and go to state 55

state 44

    (36) stringexpression -> facexpression .
    (25) mulexpression -> facexpression .

  ! reduce/reduce conflict for PV resolved using rule 25 (mulexpression -> facexpression .)
    PT              reduce using rule 36 (stringexpression -> facexpression .)
    MULOP           reduce using rule 25 (mulexpression -> facexpression .)
    ADDOP           reduce using rule 25 (mulexpression -> facexpression .)
    REL             reduce using rule 25 (mulexpression -> facexpression .)
    EQ              reduce using rule 25 (mulexpression -> facexpression .)
    AND             reduce using rule 25 (mulexpression -> facexpression .)
    OR              reduce using rule 25 (mulexpression -> facexpression .)
    PV              reduce using rule 25 (mulexpression -> facexpression .)

  ! PV              [ reduce using rule 36 (stringexpression -> facexpression .) ]


state 45

    (33) stringexpression -> stringexpression PT . fexpression
    (34) stringexpression -> stringexpression PT . facexpression
    (32) fexpression -> . STRI STR STRO
    (26) facexpression -> . VAR
    (27) facexpression -> . INT
    (28) facexpression -> . TRUE
    (29) facexpression -> . FALSE

    STRI            shift and go to state 29
    VAR             shift and go to state 30
    INT             shift and go to state 20
    TRUE            shift and go to state 21
    FALSE           shift and go to state 22

    fexpression                    shift and go to state 57
    facexpression                  shift and go to state 58

state 46

    (32) fexpression -> STRI STR . STRO

    STRO            shift and go to state 59


state 47

    (9) expression -> FOR VAR IN . stringlist DO expressionlist EF
    (10) expression -> FOR VAR IN . VAR DO expressionlist EF
    (37) stringlist -> . BRO stringlistinterior BRC

    VAR             shift and go to state 60
    BRO             shift and go to state 43

    stringlist                     shift and go to state 61

state 48

    (11) expression -> IF conditionalOrExpression DO . expressionlist ENDIF
    (30) expressionlist -> . expression PV
    (31) expressionlist -> . expression PV expressionlist
    (6) expression -> . VAR ASN stringlist
    (7) expression -> . VAR ASN stringexpression
    (8) expression -> . PRT stringexpression
    (9) expression -> . FOR VAR IN stringlist DO expressionlist EF
    (10) expression -> . FOR VAR IN VAR DO expressionlist EF
    (11) expression -> . IF conditionalOrExpression DO expressionlist ENDIF
    (12) expression -> . VAR ASN conditionalOrExpression
    (13) expression -> . conditionalOrExpression
    (14) conditionalOrExpression -> . conditionalAndExpression
    (15) conditionalOrExpression -> . conditionalOrExpression OR conditionalAndExpression
    (16) conditionalAndExpression -> . equalityExpression
    (17) conditionalAndExpression -> . conditionalAndExpression AND equalityExpression
    (18) equalityExpression -> . relationalExpression
    (19) equalityExpression -> . equalityExpression EQ relationalExpression
    (20) relationalExpression -> . opexpression
    (21) relationalExpression -> . relationalExpression REL opexpression
    (22) opexpression -> . opexpression ADDOP mulexpression
    (23) opexpression -> . mulexpression
    (24) mulexpression -> . mulexpression MULOP facexpression
    (25) mulexpression -> . facexpression
    (26) facexpression -> . VAR
    (27) facexpression -> . INT
    (28) facexpression -> . TRUE
    (29) facexpression -> . FALSE

    VAR             shift and go to state 9
    PRT             shift and go to state 10
    FOR             shift and go to state 11
    IF              shift and go to state 12
    INT             shift and go to state 20
    TRUE            shift and go to state 21
    FALSE           shift and go to state 22

    conditionalOrExpression        shift and go to state 13
    expressionlist                 shift and go to state 62
    expression                     shift and go to state 8
    conditionalAndExpression       shift and go to state 14
    equalityExpression             shift and go to state 15
    relationalExpression           shift and go to state 16
    opexpression                   shift and go to state 17
    mulexpression                  shift and go to state 18
    facexpression                  shift and go to state 19

state 49

    (15) conditionalOrExpression -> conditionalOrExpression OR conditionalAndExpression .
    (17) conditionalAndExpression -> conditionalAndExpression . AND equalityExpression

    OR              reduce using rule 15 (conditionalOrExpression -> conditionalOrExpression OR conditionalAndExpression .)
    PV              reduce using rule 15 (conditionalOrExpression -> conditionalOrExpression OR conditionalAndExpression .)
    DO              reduce using rule 15 (conditionalOrExpression -> conditionalOrExpression OR conditionalAndExpression .)
    AND             shift and go to state 34


state 50

    (17) conditionalAndExpression -> conditionalAndExpression AND equalityExpression .
    (19) equalityExpression -> equalityExpression . EQ relationalExpression

    AND             reduce using rule 17 (conditionalAndExpression -> conditionalAndExpression AND equalityExpression .)
    OR              reduce using rule 17 (conditionalAndExpression -> conditionalAndExpression AND equalityExpression .)
    PV              reduce using rule 17 (conditionalAndExpression -> conditionalAndExpression AND equalityExpression .)
    DO              reduce using rule 17 (conditionalAndExpression -> conditionalAndExpression AND equalityExpression .)
    EQ              shift and go to state 35


state 51

    (19) equalityExpression -> equalityExpression EQ relationalExpression .
    (21) relationalExpression -> relationalExpression . REL opexpression

    EQ              reduce using rule 19 (equalityExpression -> equalityExpression EQ relationalExpression .)
    AND             reduce using rule 19 (equalityExpression -> equalityExpression EQ relationalExpression .)
    OR              reduce using rule 19 (equalityExpression -> equalityExpression EQ relationalExpression .)
    PV              reduce using rule 19 (equalityExpression -> equalityExpression EQ relationalExpression .)
    DO              reduce using rule 19 (equalityExpression -> equalityExpression EQ relationalExpression .)
    REL             shift and go to state 36


state 52

    (21) relationalExpression -> relationalExpression REL opexpression .
    (22) opexpression -> opexpression . ADDOP mulexpression

    REL             reduce using rule 21 (relationalExpression -> relationalExpression REL opexpression .)
    EQ              reduce using rule 21 (relationalExpression -> relationalExpression REL opexpression .)
    AND             reduce using rule 21 (relationalExpression -> relationalExpression REL opexpression .)
    OR              reduce using rule 21 (relationalExpression -> relationalExpression REL opexpression .)
    PV              reduce using rule 21 (relationalExpression -> relationalExpression REL opexpression .)
    DO              reduce using rule 21 (relationalExpression -> relationalExpression REL opexpression .)
    ADDOP           shift and go to state 37


state 53

    (22) opexpression -> opexpression ADDOP mulexpression .
    (24) mulexpression -> mulexpression . MULOP facexpression

    ADDOP           reduce using rule 22 (opexpression -> opexpression ADDOP mulexpression .)
    REL             reduce using rule 22 (opexpression -> opexpression ADDOP mulexpression .)
    EQ              reduce using rule 22 (opexpression -> opexpression ADDOP mulexpression .)
    AND             reduce using rule 22 (opexpression -> opexpression ADDOP mulexpression .)
    OR              reduce using rule 22 (opexpression -> opexpression ADDOP mulexpression .)
    PV              reduce using rule 22 (opexpression -> opexpression ADDOP mulexpression .)
    DO              reduce using rule 22 (opexpression -> opexpression ADDOP mulexpression .)
    MULOP           shift and go to state 38


state 54

    (24) mulexpression -> mulexpression MULOP facexpression .

    MULOP           reduce using rule 24 (mulexpression -> mulexpression MULOP facexpression .)
    ADDOP           reduce using rule 24 (mulexpression -> mulexpression MULOP facexpression .)
    REL             reduce using rule 24 (mulexpression -> mulexpression MULOP facexpression .)
    EQ              reduce using rule 24 (mulexpression -> mulexpression MULOP facexpression .)
    AND             reduce using rule 24 (mulexpression -> mulexpression MULOP facexpression .)
    OR              reduce using rule 24 (mulexpression -> mulexpression MULOP facexpression .)
    PV              reduce using rule 24 (mulexpression -> mulexpression MULOP facexpression .)
    DO              reduce using rule 24 (mulexpression -> mulexpression MULOP facexpression .)


state 55

    (37) stringlist -> BRO stringlistinterior . BRC

    BRC             shift and go to state 63


state 56

    (38) stringlistinterior -> STRI . STR STRO VIR stringlistinterior
    (39) stringlistinterior -> STRI . STR STRO

    STR             shift and go to state 64


state 57

    (33) stringexpression -> stringexpression PT fexpression .

    PT              reduce using rule 33 (stringexpression -> stringexpression PT fexpression .)
    PV              reduce using rule 33 (stringexpression -> stringexpression PT fexpression .)


state 58

    (34) stringexpression -> stringexpression PT facexpression .

    PT              reduce using rule 34 (stringexpression -> stringexpression PT facexpression .)
    PV              reduce using rule 34 (stringexpression -> stringexpression PT facexpression .)


state 59

    (32) fexpression -> STRI STR STRO .

    PT              reduce using rule 32 (fexpression -> STRI STR STRO .)
    PV              reduce using rule 32 (fexpression -> STRI STR STRO .)


state 60

    (10) expression -> FOR VAR IN VAR . DO expressionlist EF

    DO              shift and go to state 65


state 61

    (9) expression -> FOR VAR IN stringlist . DO expressionlist EF

    DO              shift and go to state 66


state 62

    (11) expression -> IF conditionalOrExpression DO expressionlist . ENDIF

    ENDIF           shift and go to state 67


state 63

    (37) stringlist -> BRO stringlistinterior BRC .

    PV              reduce using rule 37 (stringlist -> BRO stringlistinterior BRC .)
    DO              reduce using rule 37 (stringlist -> BRO stringlistinterior BRC .)


state 64

    (38) stringlistinterior -> STRI STR . STRO VIR stringlistinterior
    (39) stringlistinterior -> STRI STR . STRO

    STRO            shift and go to state 68


state 65

    (10) expression -> FOR VAR IN VAR DO . expressionlist EF
    (30) expressionlist -> . expression PV
    (31) expressionlist -> . expression PV expressionlist
    (6) expression -> . VAR ASN stringlist
    (7) expression -> . VAR ASN stringexpression
    (8) expression -> . PRT stringexpression
    (9) expression -> . FOR VAR IN stringlist DO expressionlist EF
    (10) expression -> . FOR VAR IN VAR DO expressionlist EF
    (11) expression -> . IF conditionalOrExpression DO expressionlist ENDIF
    (12) expression -> . VAR ASN conditionalOrExpression
    (13) expression -> . conditionalOrExpression
    (14) conditionalOrExpression -> . conditionalAndExpression
    (15) conditionalOrExpression -> . conditionalOrExpression OR conditionalAndExpression
    (16) conditionalAndExpression -> . equalityExpression
    (17) conditionalAndExpression -> . conditionalAndExpression AND equalityExpression
    (18) equalityExpression -> . relationalExpression
    (19) equalityExpression -> . equalityExpression EQ relationalExpression
    (20) relationalExpression -> . opexpression
    (21) relationalExpression -> . relationalExpression REL opexpression
    (22) opexpression -> . opexpression ADDOP mulexpression
    (23) opexpression -> . mulexpression
    (24) mulexpression -> . mulexpression MULOP facexpression
    (25) mulexpression -> . facexpression
    (26) facexpression -> . VAR
    (27) facexpression -> . INT
    (28) facexpression -> . TRUE
    (29) facexpression -> . FALSE

    VAR             shift and go to state 9
    PRT             shift and go to state 10
    FOR             shift and go to state 11
    IF              shift and go to state 12
    INT             shift and go to state 20
    TRUE            shift and go to state 21
    FALSE           shift and go to state 22

    expressionlist                 shift and go to state 69
    expression                     shift and go to state 8
    conditionalOrExpression        shift and go to state 13
    conditionalAndExpression       shift and go to state 14
    equalityExpression             shift and go to state 15
    relationalExpression           shift and go to state 16
    opexpression                   shift and go to state 17
    mulexpression                  shift and go to state 18
    facexpression                  shift and go to state 19

state 66

    (9) expression -> FOR VAR IN stringlist DO . expressionlist EF
    (30) expressionlist -> . expression PV
    (31) expressionlist -> . expression PV expressionlist
    (6) expression -> . VAR ASN stringlist
    (7) expression -> . VAR ASN stringexpression
    (8) expression -> . PRT stringexpression
    (9) expression -> . FOR VAR IN stringlist DO expressionlist EF
    (10) expression -> . FOR VAR IN VAR DO expressionlist EF
    (11) expression -> . IF conditionalOrExpression DO expressionlist ENDIF
    (12) expression -> . VAR ASN conditionalOrExpression
    (13) expression -> . conditionalOrExpression
    (14) conditionalOrExpression -> . conditionalAndExpression
    (15) conditionalOrExpression -> . conditionalOrExpression OR conditionalAndExpression
    (16) conditionalAndExpression -> . equalityExpression
    (17) conditionalAndExpression -> . conditionalAndExpression AND equalityExpression
    (18) equalityExpression -> . relationalExpression
    (19) equalityExpression -> . equalityExpression EQ relationalExpression
    (20) relationalExpression -> . opexpression
    (21) relationalExpression -> . relationalExpression REL opexpression
    (22) opexpression -> . opexpression ADDOP mulexpression
    (23) opexpression -> . mulexpression
    (24) mulexpression -> . mulexpression MULOP facexpression
    (25) mulexpression -> . facexpression
    (26) facexpression -> . VAR
    (27) facexpression -> . INT
    (28) facexpression -> . TRUE
    (29) facexpression -> . FALSE

    VAR             shift and go to state 9
    PRT             shift and go to state 10
    FOR             shift and go to state 11
    IF              shift and go to state 12
    INT             shift and go to state 20
    TRUE            shift and go to state 21
    FALSE           shift and go to state 22

    expressionlist                 shift and go to state 70
    expression                     shift and go to state 8
    conditionalOrExpression        shift and go to state 13
    conditionalAndExpression       shift and go to state 14
    equalityExpression             shift and go to state 15
    relationalExpression           shift and go to state 16
    opexpression                   shift and go to state 17
    mulexpression                  shift and go to state 18
    facexpression                  shift and go to state 19

state 67

    (11) expression -> IF conditionalOrExpression DO expressionlist ENDIF .

    PV              reduce using rule 11 (expression -> IF conditionalOrExpression DO expressionlist ENDIF .)


state 68

    (38) stringlistinterior -> STRI STR STRO . VIR stringlistinterior
    (39) stringlistinterior -> STRI STR STRO .

    VIR             shift and go to state 71
    BRC             reduce using rule 39 (stringlistinterior -> STRI STR STRO .)


state 69

    (10) expression -> FOR VAR IN VAR DO expressionlist . EF

    EF              shift and go to state 72


state 70

    (9) expression -> FOR VAR IN stringlist DO expressionlist . EF

    EF              shift and go to state 73


state 71

    (38) stringlistinterior -> STRI STR STRO VIR . stringlistinterior
    (38) stringlistinterior -> . STRI STR STRO VIR stringlistinterior
    (39) stringlistinterior -> . STRI STR STRO

    STRI            shift and go to state 56

    stringlistinterior             shift and go to state 74

state 72

    (10) expression -> FOR VAR IN VAR DO expressionlist EF .

    PV              reduce using rule 10 (expression -> FOR VAR IN VAR DO expressionlist EF .)


state 73

    (9) expression -> FOR VAR IN stringlist DO expressionlist EF .

    PV              reduce using rule 9 (expression -> FOR VAR IN stringlist DO expressionlist EF .)


state 74

    (38) stringlistinterior -> STRI STR STRO VIR stringlistinterior .

    BRC             reduce using rule 38 (stringlistinterior -> STRI STR STRO VIR stringlistinterior .)

WARNING: 
WARNING: Conflicts:
WARNING: 
WARNING: reduce/reduce conflict in state 44 resolved using rule (mulexpression -> facexpression)
WARNING: rejected rule (stringexpression -> facexpression) in state 44
